<!--  SRX abbreviations for French  (UTF-8)  -->
<!-- From ULi http://uli.unicode.org/home/uli-documents -->

 <rule break="no">
    <beforebreak>\b[Aa][Dd][Dd]\.</beforebreak>
    <afterbreak>\s</afterbreak>
  </rule>
  <rule break="no">
    <beforebreak>\b[Aa][Dd][Mm]\.</beforebreak>
    <afterbreak>\s</afterbreak>
  </rule>
  <rule break="no">
    <beforebreak>\b[Aa][Ff][Ff]\.</beforebreak>
    <afterbreak>\s</afterbreak>
  </rule>
  <rule break="no">
    <beforebreak>\b[Aa][Gg][Rr]\.</beforebreak>
    <afterbreak>\s</afterbreak>
  </rule>
  <rule break="no">
    <beforebreak>\b[Aa][Ll]\.</beforebreak>
    <afterbreak>\s</afterbreak>
  </rule>
  <rule break="no">
    <beforebreak>\b[Aa][Ll][Cc]\.</beforebreak>
    <afterbreak>\s</afterbreak>
  </rule>
  <rule break="no">
    <beforebreak>\b[Aa][Pp]\.[Jj]\.-[Cc]\.</beforebreak>
    <afterbreak>\s</afterbreak>
  </rule>
  <rule break="no">
    <beforebreak>\b[Aa][Pp][Pp][Rr][Oo][Xx]\.</beforebreak>
    <afterbreak>\s</afterbreak>
  </rule>
  <rule break="no">
    <beforebreak>\b[Aa][Pp][Pp][Tt]\.</beforebreak>
    <afterbreak>\s</afterbreak>
  </rule>
  <rule break="no">
    <beforebreak>\b[Aa][Pp][Rr]\.</beforebreak>
    <afterbreak>\s</afterbreak>
  </rule>
  <rule break="no">
    <beforebreak>\b[Aa][Rr][Rr]\.</beforebreak>
    <afterbreak>\s</afterbreak>
  </rule>
  <rule break="no">
    <beforebreak>\b[Aa][Rr][Rr][Tt]\.</beforebreak>
    <afterbreak>\s</afterbreak>
  </rule>
  <rule break="no">
    <beforebreak>\b[Aa][Rr][Tt]\.</beforebreak>
    <afterbreak>\s</afterbreak>
  </rule>
  <rule break="no">
    <beforebreak>\b[Aa][Ss][Ss][Oo][Cc]\.</beforebreak>
    <afterbreak>\s</afterbreak>
  </rule>
  <rule break="no">
    <beforebreak>\b[Aa][Tt][Tt]\.</beforebreak>
    <afterbreak>\s</afterbreak>
  </rule>
  <rule break="no">
    <beforebreak>\b[Aa][Vv]\.</beforebreak>
    <afterbreak>\s</afterbreak>
  </rule>
  <rule break="no">
    <beforebreak>\b[Aa][Vv]\.[Jj]\.-[Cc]\.</beforebreak>
    <afterbreak>\s</afterbreak>
  </rule>
  <rule break="no">
    <beforebreak>\b[Aa][Vv][Rr]\.</beforebreak>
    <afterbreak>\s</afterbreak>
  </rule>
  <rule break="no">
    <beforebreak>\b[Bb][Dd]\.</beforebreak>
    <afterbreak>\s</afterbreak>
  </rule>
  <rule break="no">
    <beforebreak>\b[Bb][Ii][Ss]\.</beforebreak>
    <afterbreak>\s</afterbreak>
  </rule>
  <rule break="no">
    <beforebreak>\b[Bb][Ll][Dd]\.</beforebreak>
    <afterbreak>\s</afterbreak>
  </rule>
  <rule break="no">
    <beforebreak>\b[Bb][Rr]\.</beforebreak>
    <afterbreak>\s</afterbreak>
  </rule>
  <rule break="no">
    <beforebreak>\b[Bb][Uu][Ll][Ll]\.</beforebreak>
    <afterbreak>\s</afterbreak>
  </rule>
  <rule break="no">
    <beforebreak>\b[Cc]-[Àà]-[Dd]\.</beforebreak>
    <afterbreak>\s</afterbreak>
  </rule>
  <rule break="no">
    <beforebreak>\b[Cc]\.-[Àà]-[Dd]\.</beforebreak>
    <afterbreak>\s</afterbreak>
  </rule>
  <rule break="no">
    <beforebreak>\b[Cc][Ff]\.</beforebreak>
    <afterbreak>\s</afterbreak>
  </rule>
  <rule break="no">
    <beforebreak>\b[Cc][Ff][Rr]\.</beforebreak>
    <afterbreak>\s</afterbreak>
  </rule>
  <rule break="no">
    <beforebreak>\b[Cc][Hh]\.</beforebreak>
    <afterbreak>\s</afterbreak>
  </rule>
  <rule break="no">
    <beforebreak>\b[Cc][Hh][Aa][Pp]\.</beforebreak>
    <afterbreak>\s</afterbreak>
  </rule>
  <rule break="no">
    <beforebreak>\b[Cc][Ii][Ee]\.</beforebreak>
    <afterbreak>\s</afterbreak>
  </rule>
  <rule break="no">
    <beforebreak>\b[Cc][Ii][Rr][Cc]\.</beforebreak>
    <afterbreak>\s</afterbreak>
  </rule>
  <rule break="no">
    <beforebreak>\b[Cc][Ii][Tt]\.</beforebreak>
    <afterbreak>\s</afterbreak>
  </rule>
  <rule break="no">
    <beforebreak>\b[Cc][Oo][Ee][Ff][Ff]\.</beforebreak>
    <afterbreak>\s</afterbreak>
  </rule>
  <rule break="no">
    <beforebreak>\b[Cc][Oo][Ll][Ll]\.</beforebreak>
    <afterbreak>\s</afterbreak>
  </rule>
  <rule break="no">
    <beforebreak>\b[Cc][Oo][Mm]\.</beforebreak>
    <afterbreak>\s</afterbreak>
  </rule>
  <rule break="no">
    <beforebreak>\b[Cc][Oo][Mm][Mm]\.</beforebreak>
    <afterbreak>\s</afterbreak>
  </rule>
  <rule break="no">
    <beforebreak>\b[Cc][Oo][Mm][Pp]\.</beforebreak>
    <afterbreak>\s</afterbreak>
  </rule>
  <rule break="no">
    <beforebreak>\b[Cc][Oo][Nn][Cc]\.</beforebreak>
    <afterbreak>\s</afterbreak>
  </rule>
  <rule break="no">
    <beforebreak>\b[Cc][Oo][Nn][Ff]\.</beforebreak>
    <afterbreak>\s</afterbreak>
  </rule>
  <rule break="no">
    <beforebreak>\b[Dd][Ee][Pp]\.</beforebreak>
    <afterbreak>\s</afterbreak>
  </rule>
  <rule break="no">
    <beforebreak>\b[Dd][Ee][Ss][Tt]\.</beforebreak>
    <afterbreak>\s</afterbreak>
  </rule>
  <rule break="no">
    <beforebreak>\b[Dd][Ii][Aa][Mm]\.</beforebreak>
    <afterbreak>\s</afterbreak>
  </rule>
  <rule break="no">
    <beforebreak>\b[Dd][Ii][Rr]\.</beforebreak>
    <afterbreak>\s</afterbreak>
  </rule>
  <rule break="no">
    <beforebreak>\b[Dd][Ii][Vv]\.</beforebreak>
    <afterbreak>\s</afterbreak>
  </rule>
  <rule break="no">
    <beforebreak>\b[Dd][Oo][Cc]\.</beforebreak>
    <afterbreak>\s</afterbreak>
  </rule>
  <rule break="no">
    <beforebreak>\b[Dd][Oo][Cc][Ss]\.</beforebreak>
    <afterbreak>\s</afterbreak>
  </rule>
  <rule break="no">
    <beforebreak>\b[Dd][Rr]\.</beforebreak>
    <afterbreak>\s</afterbreak>
  </rule>
  <rule break="no">
    <beforebreak>\b[Dd][Éé][Cc]\.</beforebreak>
    <afterbreak>\s</afterbreak>
  </rule>
  <rule break="no">
    <beforebreak>\b[Dd][Éé][Cc][Rr]\.</beforebreak>
    <afterbreak>\s</afterbreak>
  </rule>
  <rule break="no">
    <beforebreak>\b[Dd][Éé][Pp]\.</beforebreak>
    <afterbreak>\s</afterbreak>
  </rule>
  <rule break="no">
    <beforebreak>\b[Dd][Éé][Pp][Tt]\.</beforebreak>
    <afterbreak>\s</afterbreak>
  </rule>
  <rule break="no">
    <beforebreak>\b[Ee][Dd]\.</beforebreak>
    <afterbreak>\s</afterbreak>
  </rule>
  <rule break="no">
    <beforebreak>\b[Ee][Ll][Ee][Cc][Tt][Rr]\.</beforebreak>
    <afterbreak>\s</afterbreak>
  </rule>
  <rule break="no">
    <beforebreak>\b[Ee][Nn][Vv]\.</beforebreak>
    <afterbreak>\s</afterbreak>
  </rule>
  <rule break="no">
    <beforebreak>\b[Ee][Ss][Tt]\.</beforebreak>
    <afterbreak>\s</afterbreak>
  </rule>
  <rule break="no">
    <beforebreak>\b[Ee][Tt][Cc]\.</beforebreak>
    <afterbreak>\s</afterbreak>
  </rule>
  <rule break="no">
    <beforebreak>\b[Ee][Xx]\.</beforebreak>
    <afterbreak>\s</afterbreak>
  </rule>
  <rule break="no">
    <beforebreak>\b[Ee][Xx][Cc]\.</beforebreak>
    <afterbreak>\s</afterbreak>
  </rule>
  <rule break="no">
    <beforebreak>\b[Ee][Xx][Pp]\.</beforebreak>
    <afterbreak>\s</afterbreak>
  </rule>
  <rule break="no">
    <beforebreak>\b[Ee][Xx][Tt]\.</beforebreak>
    <afterbreak>\s</afterbreak>
  </rule>
  <rule break="no">
    <beforebreak>\b[Ff][Ii][Gg]\.</beforebreak>
    <afterbreak>\s</afterbreak>
  </rule>
  <rule break="no">
    <beforebreak>\b[Ff][Rr]\.</beforebreak>
    <afterbreak>\s</afterbreak>
  </rule>
  <rule break="no">
    <beforebreak>\b[Ff][Rr][Ee][Ss]\.</beforebreak>
    <afterbreak>\s</afterbreak>
  </rule>
  <rule break="no">
    <beforebreak>\b[Hh]\.[Tt]\.</beforebreak>
    <afterbreak>\s</afterbreak>
  </rule>
  <rule break="no">
    <beforebreak>\b[Ii][Bb][Ii][Dd]\.</beforebreak>
    <afterbreak>\s</afterbreak>
  </rule>
  <rule break="no">
    <beforebreak>\b[Ii][Dd]\.</beforebreak>
    <afterbreak>\s</afterbreak>
  </rule>
  <rule break="no">
    <beforebreak>\b[Ii][Nn][Cc][Ll]\.</beforebreak>
    <afterbreak>\s</afterbreak>
  </rule>
  <rule break="no">
    <beforebreak>\b[Ii][Nn][Dd]\.</beforebreak>
    <afterbreak>\s</afterbreak>
  </rule>
  <rule break="no">
    <beforebreak>\b[Ii][Nn][Gg]\.</beforebreak>
    <afterbreak>\s</afterbreak>
  </rule>
  <rule break="no">
    <beforebreak>\b[Ii][Nn][Ss][Tt]\.</beforebreak>
    <afterbreak>\s</afterbreak>
  </rule>
  <rule break="no">
    <beforebreak>\b[Ii][Nn][Tt]\.</beforebreak>
    <afterbreak>\s</afterbreak>
  </rule>
  <rule break="no">
    <beforebreak>\b[Ii][Tt]\.</beforebreak>
    <afterbreak>\s</afterbreak>
  </rule>
  <rule break="no">
    <beforebreak>\b[Jj]\.[Oo]\.</beforebreak>
    <afterbreak>\s</afterbreak>
  </rule>
  <rule break="no">
    <beforebreak>\b[Jj][Aa][Nn]\.</beforebreak>
    <afterbreak>\s</afterbreak>
  </rule>
  <rule break="no">
    <beforebreak>\b[Jj][Uu][Ii][Ll]\.</beforebreak>
    <afterbreak>\s</afterbreak>
  </rule>
  <rule break="no">
    <beforebreak>\b[Ll][Ii][Cc]\.</beforebreak>
    <afterbreak>\s</afterbreak>
  </rule>
  <rule break="no">
    <beforebreak>\b[Mm]\.</beforebreak>
    <afterbreak>\s</afterbreak>
  </rule>
  <rule break="no">
    <beforebreak>\b[Mm][Aa][Jj]\.</beforebreak>
    <afterbreak>\s</afterbreak>
  </rule>
  <rule break="no">
    <beforebreak>\b[Mm][Aa][Xx]\.</beforebreak>
    <afterbreak>\s</afterbreak>
  </rule>
  <rule break="no">
    <beforebreak>\b[Mm][Ii][Nn]\.</beforebreak>
    <afterbreak>\s</afterbreak>
  </rule>
  <rule break="no">
    <beforebreak>\b[Mm][Ll][Ll][Ee]\.</beforebreak>
    <afterbreak>\s</afterbreak>
  </rule>
  <rule break="no">
    <beforebreak>\b[Mm][Ll][Ll][Ee][Ss]\.</beforebreak>
    <afterbreak>\s</afterbreak>
  </rule>
  <rule break="no">
    <beforebreak>\b[Mm][Mm]\.</beforebreak>
    <afterbreak>\s</afterbreak>
  </rule>
  <rule break="no">
    <beforebreak>\b[Mm][Mm][Ee]\.</beforebreak>
    <afterbreak>\s</afterbreak>
  </rule>
  <rule break="no">
    <beforebreak>\b[Mm][Mm][Ee][Ss]\.</beforebreak>
    <afterbreak>\s</afterbreak>
  </rule>
  <rule break="no">
    <beforebreak>\b[Mm][Rr]\.</beforebreak>
    <afterbreak>\s</afterbreak>
  </rule>
  <rule break="no">
    <beforebreak>\b[Mm][Ss]\.</beforebreak>
    <afterbreak>\s</afterbreak>
  </rule>
  <rule break="no">
    <beforebreak>\b[Nn][Ee][Gg]\.</beforebreak>
    <afterbreak>\s</afterbreak>
  </rule>
  <rule break="no">
    <beforebreak>\b[Nn][Oo]\.</beforebreak>
    <afterbreak>\s</afterbreak>
  </rule>
  <rule break="no">
    <beforebreak>\b[Nn][Oo][Ss]\.</beforebreak>
    <afterbreak>\s</afterbreak>
  </rule>
  <rule break="no">
    <beforebreak>\b[Nn][Oo][Vv]\.</beforebreak>
    <afterbreak>\s</afterbreak>
  </rule>
  <rule break="no">
    <beforebreak>\b[Nn]°\.</beforebreak>
    <afterbreak>\s</afterbreak>
  </rule>
  <rule break="no">
    <beforebreak>\b[Nn]°[Ss]\.</beforebreak>
    <afterbreak>\s</afterbreak>
  </rule>
  <rule break="no">
    <beforebreak>\b[Oo]\.[Jj]\.</beforebreak>
    <afterbreak>\s</afterbreak>
  </rule>
  <rule break="no">
    <beforebreak>\b[Oo][Bb][Jj]\.</beforebreak>
    <afterbreak>\s</afterbreak>
  </rule>
  <rule break="no">
    <beforebreak>\b[Oo][Cc][Tt]\.</beforebreak>
    <afterbreak>\s</afterbreak>
  </rule>
  <rule break="no">
    <beforebreak>\b[Oo][Ff][Ff]\.</beforebreak>
    <afterbreak>\s</afterbreak>
  </rule>
  <rule break="no">
    <beforebreak>\b[Oo][Rr][Ii][Gg]\.</beforebreak>
    <afterbreak>\s</afterbreak>
  </rule>
  <rule break="no">
    <beforebreak>\b[Pp]-[Êê]\.</beforebreak>
    <afterbreak>\s</afterbreak>
  </rule>
  <rule break="no">
    <beforebreak>\b[Pp][Aa][Rr]\.</beforebreak>
    <afterbreak>\s</afterbreak>
  </rule>
  <rule break="no">
    <beforebreak>\b[Pp][Aa][Rr][Aa]\.</beforebreak>
    <afterbreak>\s</afterbreak>
  </rule>
  <rule break="no">
    <beforebreak>\b[Pp][Aa][Tt][Hh][Oo][Ll]\.</beforebreak>
    <afterbreak>\s</afterbreak>
  </rule>
  <rule break="no">
    <beforebreak>\b[Pp][Hh][Yy][Ss]\.</beforebreak>
    <afterbreak>\s</afterbreak>
  </rule>
  <rule break="no">
    <beforebreak>\b[Pp][Hh][Yy][Ss][Ii][Oo][Ll]\.</beforebreak>
    <afterbreak>\s</afterbreak>
  </rule>
  <rule break="no">
    <beforebreak>\b[Pp][Ll]\.</beforebreak>
    <afterbreak>\s</afterbreak>
  </rule>
  <rule break="no">
    <beforebreak>\b[Pp][Oo][Ss]\.</beforebreak>
    <afterbreak>\s</afterbreak>
  </rule>
  <rule break="no">
    <beforebreak>\b[Pp][Pp]\.</beforebreak>
    <afterbreak>\s</afterbreak>
  </rule>
  <rule break="no">
    <beforebreak>\b[Pp][Rr][Ee][Pp]\.</beforebreak>
    <afterbreak>\s</afterbreak>
  </rule>
  <rule break="no">
    <beforebreak>\b[Pp][Rr][Oo][Ff]\.</beforebreak>
    <afterbreak>\s</afterbreak>
  </rule>
  <rule break="no">
    <beforebreak>\b[Pp][Rr][Éé][Cc]\.</beforebreak>
    <afterbreak>\s</afterbreak>
  </rule>
  <rule break="no">
    <beforebreak>\b[Pp][Tt]\.</beforebreak>
    <afterbreak>\s</afterbreak>
  </rule>
  <rule break="no">
    <beforebreak>\b[Pp][Tt][Ss]\.</beforebreak>
    <afterbreak>\s</afterbreak>
  </rule>
  <rule break="no">
    <beforebreak>\b[Pp][Uu][Bb][Ll]\.</beforebreak>
    <afterbreak>\s</afterbreak>
  </rule>
  <rule break="no">
    <beforebreak>\b[Qq][Qq][Cc][Hh]\.</beforebreak>
    <afterbreak>\s</afterbreak>
  </rule>
  <rule break="no">
    <beforebreak>\b[Qq][Qq][Ff]\.</beforebreak>
    <afterbreak>\s</afterbreak>
  </rule>
  <rule break="no">
    <beforebreak>\b[Qq][Qq][Nn]\.</beforebreak>
    <afterbreak>\s</afterbreak>
  </rule>
  <rule break="no">
    <beforebreak>\b[Qq][Uu][Aa][Ll]\.</beforebreak>
    <afterbreak>\s</afterbreak>
  </rule>
  <rule break="no">
    <beforebreak>\b[Rr][Aa][Pp]\.</beforebreak>
    <afterbreak>\s</afterbreak>
  </rule>
  <rule break="no">
    <beforebreak>\b[Rr][Ee][Cc]\.</beforebreak>
    <afterbreak>\s</afterbreak>
  </rule>
  <rule break="no">
    <beforebreak>\b[Rr][Ee][Cc][Oo][Mm][Mm]\.</beforebreak>
    <afterbreak>\s</afterbreak>
  </rule>
  <rule break="no">
    <beforebreak>\b[Rr][Ee][Ff]\.</beforebreak>
    <afterbreak>\s</afterbreak>
  </rule>
  <rule break="no">
    <beforebreak>\b[Rr][Ee][Gg]\.</beforebreak>
    <afterbreak>\s</afterbreak>
  </rule>
  <rule break="no">
    <beforebreak>\b[Rr][Ee][Ss]\.</beforebreak>
    <afterbreak>\s</afterbreak>
  </rule>
  <rule break="no">
    <beforebreak>\b[Rr][Ee][Ss][Pp]\.</beforebreak>
    <afterbreak>\s</afterbreak>
  </rule>
  <rule break="no">
    <beforebreak>\b[Rr][Ee][Ss][Ss]\.</beforebreak>
    <afterbreak>\s</afterbreak>
  </rule>
  <rule break="no">
    <beforebreak>\b[Rr][Ee][Vv]\.</beforebreak>
    <afterbreak>\s</afterbreak>
  </rule>
  <rule break="no">
    <beforebreak>\b[Rr][Ff]\.</beforebreak>
    <afterbreak>\s</afterbreak>
  </rule>
  <rule break="no">
    <beforebreak>\b[Rr][Éé][Ff]\.</beforebreak>
    <afterbreak>\s</afterbreak>
  </rule>
  <rule break="no">
    <beforebreak>\b[Rr][Éé][Pp]\.</beforebreak>
    <afterbreak>\s</afterbreak>
  </rule>
  <rule break="no">
    <beforebreak>\b[Rr][Éé][Vv]\.</beforebreak>
    <afterbreak>\s</afterbreak>
  </rule>
  <rule break="no">
    <beforebreak>\b[Rr][Èè][Gg][Ll]\.</beforebreak>
    <afterbreak>\s</afterbreak>
  </rule>
  <rule break="no">
    <beforebreak>\b[Ss]\.[Aa]\.</beforebreak>
    <afterbreak>\s</afterbreak>
  </rule>
  <rule break="no">
    <beforebreak>\b[Ss]\.[Aa]\.[Ss]\.</beforebreak>
    <afterbreak>\s</afterbreak>
  </rule>
  <rule break="no">
    <beforebreak>\b[Ss]\.[Nn]\.[Cc]\.</beforebreak>
    <afterbreak>\s</afterbreak>
  </rule>
  <rule break="no">
    <beforebreak>\b[Ss][Ee][Mm]\.</beforebreak>
    <afterbreak>\s</afterbreak>
  </rule>
  <rule break="no">
    <beforebreak>\b[Ss][Ee][Pp][Tt]\.</beforebreak>
    <afterbreak>\s</afterbreak>
  </rule>
  <rule break="no">
    <beforebreak>\b[Ss][Ii][Dd]\.</beforebreak>
    <afterbreak>\s</afterbreak>
  </rule>
  <rule break="no">
    <beforebreak>\b[Ss][Oo][Cc]\.</beforebreak>
    <afterbreak>\s</afterbreak>
  </rule>
  <rule break="no">
    <beforebreak>\b[Ss][Pp][Pp]\.</beforebreak>
    <afterbreak>\s</afterbreak>
  </rule>
  <rule break="no">
    <beforebreak>\b[Ss][Tt][Bb][Ll][Dd]\.</beforebreak>
    <afterbreak>\s</afterbreak>
  </rule>
  <rule break="no">
    <beforebreak>\b[Ss][Uu][Bb]\.</beforebreak>
    <afterbreak>\s</afterbreak>
  </rule>
  <rule break="no">
    <beforebreak>\b[Ss][Uu][Pp][Pp][Ll]\.</beforebreak>
    <afterbreak>\s</afterbreak>
  </rule>
  <rule break="no">
    <beforebreak>\b[Tt][Ee][Ll]\.</beforebreak>
    <afterbreak>\s</afterbreak>
  </rule>
  <rule break="no">
    <beforebreak>\b[Tt][Ee][Mm][Pp]\.</beforebreak>
    <afterbreak>\s</afterbreak>
  </rule>
  <rule break="no">
    <beforebreak>\b[Tt][Ee][Rr]\.</beforebreak>
    <afterbreak>\s</afterbreak>
  </rule>
  <rule break="no">
    <beforebreak>\b[Tt][Éé][Ll]\.</beforebreak>
    <afterbreak>\s</afterbreak>
  </rule>
  <rule break="no">
    <beforebreak>\b[Uu][Nn][Ii][Vv]\.</beforebreak>
    <afterbreak>\s</afterbreak>
  </rule>
  <rule break="no">
    <beforebreak>\b[Vv][Aa][Rr]\.</beforebreak>
    <afterbreak>\s</afterbreak>
  </rule>
  <rule break="no">
    <beforebreak>\b[Éé][Tt]\.</beforebreak>
    <afterbreak>\s</afterbreak>
  </rule>
