<!--  SRX abbreviations for Polish  (UTF-8)  -->
<!-- From ULi http://uli.unicode.org/home/uli-documents -->

 <rule break="no">
    <beforebreak>\b-9{2,4}[Rr]\.</beforebreak>
    <afterbreak>\s</afterebreak>
  </rule>
  <rule break="no">
    <beforebreak>\b[Aa]\.</beforebreak>
    <afterbreak>\s</afterebreak>
  </rule>
  <rule break="no">
    <beforebreak>\b[Aa]\.[Cc]\.</beforebreak>
    <afterbreak>\s</afterebreak>
  </rule>
  <rule break="no">
    <beforebreak>\b[Aa]\.[Ii]\.</beforebreak>
    <afterbreak>\s</afterebreak>
  </rule>
  <rule break="no">
    <beforebreak>\b[Aa]\.[Mm]\.</beforebreak>
    <afterbreak>\s</afterebreak>
  </rule>
  <rule break="no">
    <beforebreak>\b[Aa]\.[Ss]\.[Cc]\.</beforebreak>
    <afterbreak>\s</afterebreak>
  </rule>
  <rule break="no">
    <beforebreak>\b[Aa]\.[Tt]\.</beforebreak>
    <afterbreak>\s</afterebreak>
  </rule>
  <rule break="no">
    <beforebreak>\b[Aa]\.[Uu]\.[Cc]\.</beforebreak>
    <afterbreak>\s</afterebreak>
  </rule>
  <rule break="no">
    <beforebreak>\b[Aa][Aa]</beforebreak>
    <afterbreak>\s</afterebreak>
  </rule>
  <rule break="no">
    <beforebreak>\b[Aa][Bb][Ll]\.</beforebreak>
    <afterbreak>\s</afterebreak>
  </rule>
  <rule break="no">
    <beforebreak>\b[Aa][Bb][Pp]</beforebreak>
    <afterbreak>\s</afterebreak>
  </rule>
  <rule break="no">
    <beforebreak>\b[Aa][Bb][Ss]\.</beforebreak>
    <afterbreak>\s</afterebreak>
  </rule>
  <rule break="no">
    <beforebreak>\b[Aa][Bb][Ss][Oo][Ll][Ww]\.</beforebreak>
    <afterbreak>\s</afterebreak>
  </rule>
  <rule break="no">
    <beforebreak>\b[Aa][Cc][Cc]\.</beforebreak>
    <afterbreak>\s</afterebreak>
  </rule>
  <rule break="no">
    <beforebreak>\b[Aa][Cc][Cc][Ee][Ll]\.</beforebreak>
    <afterbreak>\s</afterebreak>
  </rule>
  <rule break="no">
    <beforebreak>\b[Aa][Dd]\.</beforebreak>
    <afterbreak>\s</afterebreak>
  </rule>
  <rule break="no">
    <beforebreak>\b[Aa][Gg][Dd]\.</beforebreak>
    <afterbreak>\s</afterebreak>
  </rule>
  <rule break="no">
    <beforebreak>\b[Aa][Ll]\.</beforebreak>
    <afterbreak>\s</afterebreak>
  </rule>
  <rule break="no">
    <beforebreak>\b[Aa][Nn][Gg]\.</beforebreak>
    <afterbreak>\s</afterebreak>
  </rule>
  <rule break="no">
    <beforebreak>\b[Aa][Rr][Cc][Hh]\.</beforebreak>
    <afterbreak>\s</afterebreak>
  </rule>
  <rule break="no">
    <beforebreak>\b[Aa][Rr][Tt]\.</beforebreak>
    <afterbreak>\s</afterebreak>
  </rule>
  <rule break="no">
    <beforebreak>\b[Aa][Tt]</beforebreak>
    <afterbreak>\s</afterebreak>
  </rule>
  <rule break="no">
    <beforebreak>\b[Aa][Tt][Mm]</beforebreak>
    <afterbreak>\s</afterebreak>
  </rule>
  <rule break="no">
    <beforebreak>\b[Bb]\.[Dd]\.</beforebreak>
    <afterbreak>\s</afterebreak>
  </rule>
  <rule break="no">
    <beforebreak>\b[Bb]\.[Mm]\.</beforebreak>
    <afterbreak>\s</afterebreak>
  </rule>
  <rule break="no">
    <beforebreak>\b[Bb]\.[Pp]\.</beforebreak>
    <afterbreak>\s</afterebreak>
  </rule>
  <rule break="no">
    <beforebreak>\b[Bb]\.[Rr]\.</beforebreak>
    <afterbreak>\s</afterebreak>
  </rule>
  <rule break="no">
    <beforebreak>\b[Bb]\.[Uu]\.</beforebreak>
    <afterbreak>\s</afterebreak>
  </rule>
  <rule break="no">
    <beforebreak>\b[Bb][Ee][Ll][Gg]\.</beforebreak>
    <afterbreak>\s</afterebreak>
  </rule>
  <rule break="no">
    <beforebreak>\b[Bb][Ll][Pp]\.</beforebreak>
    <afterbreak>\s</afterebreak>
  </rule>
  <rule break="no">
    <beforebreak>\b[Bb][Mm]\.</beforebreak>
    <afterbreak>\s</afterebreak>
  </rule>
  <rule break="no">
    <beforebreak>\b[Bb][Oo][Tt]\.</beforebreak>
    <afterbreak>\s</afterebreak>
  </rule>
  <rule break="no">
    <beforebreak>\b[Bb][Rr]\.</beforebreak>
    <afterbreak>\s</afterebreak>
  </rule>
  <rule break="no">
    <beforebreak>\b[Bb][Łł]\.</beforebreak>
    <afterbreak>\s</afterebreak>
  </rule>
  <rule break="no">
    <beforebreak>\b[Bb][Łł][Pp]\.</beforebreak>
    <afterbreak>\s</afterebreak>
  </rule>
  <rule break="no">
    <beforebreak>\b[Cc][Dd][Nn]\.</beforebreak>
    <afterbreak>\s</afterebreak>
  </rule>
  <rule break="no">
    <beforebreak>\b[Cc][Ff]\.</beforebreak>
    <afterbreak>\s</afterebreak>
  </rule>
  <rule break="no">
    <beforebreak>\b[Cc][Hh][Ee][Mm]\.</beforebreak>
    <afterbreak>\s</afterebreak>
  </rule>
  <rule break="no">
    <beforebreak>\b[Cc][Hh][Oo][Rr]\.</beforebreak>
    <afterbreak>\s</afterebreak>
  </rule>
  <rule break="no">
    <beforebreak>\b[Cc][Ii][Tt]\.</beforebreak>
    <afterbreak>\s</afterebreak>
  </rule>
  <rule break="no">
    <beforebreak>\b[Cc][Oo][Ll]\.</beforebreak>
    <afterbreak>\s</afterebreak>
  </rule>
  <rule break="no">
    <beforebreak>\b[Cc][Oo][Ss]</beforebreak>
    <afterbreak>\s</afterebreak>
  </rule>
  <rule break="no">
    <beforebreak>\b[Cc][Yy][Kk][Ll]\.</beforebreak>
    <afterbreak>\s</afterebreak>
  </rule>
  <rule break="no">
    <beforebreak>\b[Cc][Yy][Tt]\.</beforebreak>
    <afterbreak>\s</afterebreak>
  </rule>
  <rule break="no">
    <beforebreak>\b[Cc][Zz]\.</beforebreak>
    <afterbreak>\s</afterebreak>
  </rule>
  <rule break="no">
    <beforebreak>\b[Cc][Zz][Yy][Tt]\.</beforebreak>
    <afterbreak>\s</afterebreak>
  </rule>
  <rule break="no">
    <beforebreak>\b[Dd][Cc][Nn]\.</beforebreak>
    <afterbreak>\s</afterebreak>
  </rule>
  <rule break="no">
    <beforebreak>\b[Dd][Ee][Nn][Tt]\.</beforebreak>
    <afterbreak>\s</afterebreak>
  </rule>
  <rule break="no">
    <beforebreak>\b[Dd][Ee][Pp]\.</beforebreak>
    <afterbreak>\s</afterebreak>
  </rule>
  <rule break="no">
    <beforebreak>\b[Dd][Gg][Nn]\.</beforebreak>
    <afterbreak>\s</afterebreak>
  </rule>
  <rule break="no">
    <beforebreak>\b[Dd][Ii][Aa][Gg]\.</beforebreak>
    <afterbreak>\s</afterebreak>
  </rule>
  <rule break="no">
    <beforebreak>\b[Dd][Nn]\.</beforebreak>
    <afterbreak>\s</afterebreak>
  </rule>
  <rule break="no">
    <beforebreak>\b[Dd][Oo][Cc]\.</beforebreak>
    <afterbreak>\s</afterebreak>
  </rule>
  <rule break="no">
    <beforebreak>\b[Dd][Oo][Ss][Łł]\.</beforebreak>
    <afterbreak>\s</afterebreak>
  </rule>
  <rule break="no">
    <beforebreak>\b[Dd][Oo][Tt]\.</beforebreak>
    <afterbreak>\s</afterebreak>
  </rule>
  <rule break="no">
    <beforebreak>\b[Dd][Ss]\.</beforebreak>
    <afterbreak>\s</afterebreak>
  </rule>
  <rule break="no">
    <beforebreak>\b[Dd][Yy][Pp][Ll]\.</beforebreak>
    <afterbreak>\s</afterebreak>
  </rule>
  <rule break="no">
    <beforebreak>\b[Dd][Yy][Rr]\.</beforebreak>
    <afterbreak>\s</afterebreak>
  </rule>
  <rule break="no">
    <beforebreak>\b[Dd][Yy][Ww]\.</beforebreak>
    <afterbreak>\s</afterebreak>
  </rule>
  <rule break="no">
    <beforebreak>\b[Dd][Zz]\.</beforebreak>
    <afterbreak>\s</afterebreak>
  </rule>
  <rule break="no">
    <beforebreak>\b[Dd][Zz]\. [Uu]\.</beforebreak>
    <afterbreak>\s</afterebreak>
  </rule>
  <rule break="no">
    <beforebreak>\b[Dd][Zz]\.[Uu]\.</beforebreak>
    <afterbreak>\s</afterebreak>
  </rule>
  <rule break="no">
    <beforebreak>\b[Ee]\.[Aa]\.</beforebreak>
    <afterbreak>\s</afterebreak>
  </rule>
  <rule break="no">
    <beforebreak>\b[Ee]\.[Ii]\.</beforebreak>
    <afterbreak>\s</afterebreak>
  </rule>
  <rule break="no">
    <beforebreak>\b[Ee][Ee][Gg]\.</beforebreak>
    <afterbreak>\s</afterebreak>
  </rule>
  <rule break="no">
    <beforebreak>\b[Ee][Gg][Zz]\.</beforebreak>
    <afterbreak>\s</afterebreak>
  </rule>
  <rule break="no">
    <beforebreak>\b[Ee][Kk][Gg]\.</beforebreak>
    <afterbreak>\s</afterebreak>
  </rule>
  <rule break="no">
    <beforebreak>\b[Ee][Mm][Gg]\.</beforebreak>
    <afterbreak>\s</afterebreak>
  </rule>
  <rule break="no">
    <beforebreak>\b[Ee][Tt][Cc]\.</beforebreak>
    <afterbreak>\s</afterebreak>
  </rule>
  <rule break="no">
    <beforebreak>\b[Ee][Ww]\.</beforebreak>
    <afterbreak>\s</afterebreak>
  </rule>
  <rule break="no">
    <beforebreak>\b[Ee][Xx][Cc]\.</beforebreak>
    <afterbreak>\s</afterebreak>
  </rule>
  <rule break="no">
    <beforebreak>\b[Ff][Aa][Nn][Tt]\.</beforebreak>
    <afterbreak>\s</afterebreak>
  </rule>
  <rule break="no">
    <beforebreak>\b[Ff][Aa][Rr][Mm]\.</beforebreak>
    <afterbreak>\s</afterebreak>
  </rule>
  <rule break="no">
    <beforebreak>\b[Ff][Ll][Aa][Mm]\.</beforebreak>
    <afterbreak>\s</afterebreak>
  </rule>
  <rule break="no">
    <beforebreak>\b[Ff][Oo][Tt]\.</beforebreak>
    <afterbreak>\s</afterebreak>
  </rule>
  <rule break="no">
    <beforebreak>\b[Ff][Rr]\.</beforebreak>
    <afterbreak>\s</afterebreak>
  </rule>
  <rule break="no">
    <beforebreak>\b[Ff][Rr][Aa][Nn][Cc]\.</beforebreak>
    <afterbreak>\s</afterebreak>
  </rule>
  <rule break="no">
    <beforebreak>\b[Gg][Ee][Nn]\.</beforebreak>
    <afterbreak>\s</afterebreak>
  </rule>
  <rule break="no">
    <beforebreak>\b[Gg][Mm]\.</beforebreak>
    <afterbreak>\s</afterebreak>
  </rule>
  <rule break="no">
    <beforebreak>\b[Gg][Oo][Dd][Zz]\.</beforebreak>
    <afterbreak>\s</afterebreak>
  </rule>
  <rule break="no">
    <beforebreak>\b[Gg][Rr]\.</beforebreak>
    <afterbreak>\s</afterebreak>
  </rule>
  <rule break="no">
    <beforebreak>\b[Hh][Aa][Bb]\.</beforebreak>
    <afterbreak>\s</afterebreak>
  </rule>
  <rule break="no">
    <beforebreak>\b[Hh][Oo][Ll]\.</beforebreak>
    <afterbreak>\s</afterebreak>
  </rule>
  <rule break="no">
    <beforebreak>\b[Hh][Rr]\.</beforebreak>
    <afterbreak>\s</afterebreak>
  </rule>
  <rule break="no">
    <beforebreak>\b[Ii] [Ii][Nn]\.</beforebreak>
    <afterbreak>\s</afterebreak>
  </rule>
  <rule break="no">
    <beforebreak>\b[Ii] [Ww][Ss][Pp]\.</beforebreak>
    <afterbreak>\s</afterebreak>
  </rule>
  <rule break="no">
    <beforebreak>\b[Ii][Bb]\.</beforebreak>
    <afterbreak>\s</afterebreak>
  </rule>
  <rule break="no">
    <beforebreak>\b[Ii][Bb][Ii][Dd]\.</beforebreak>
    <afterbreak>\s</afterebreak>
  </rule>
  <rule break="no">
    <beforebreak>\b[Ii][Mm]\.</beforebreak>
    <afterbreak>\s</afterebreak>
  </rule>
  <rule break="no">
    <beforebreak>\b[Ii][Nn]\.</beforebreak>
    <afterbreak>\s</afterebreak>
  </rule>
  <rule break="no">
    <beforebreak>\b[Ii][Nn][Ff]\.</beforebreak>
    <afterbreak>\s</afterebreak>
  </rule>
  <rule break="no">
    <beforebreak>\b[Ii][Nn][Ss][Tt]\.</beforebreak>
    <afterbreak>\s</afterebreak>
  </rule>
  <rule break="no">
    <beforebreak>\b[Ii][Nn][Vv]\.</beforebreak>
    <afterbreak>\s</afterebreak>
  </rule>
  <rule break="no">
    <beforebreak>\b[Ii][Nn][Żż]\.</beforebreak>
    <afterbreak>\s</afterebreak>
  </rule>
  <rule break="no">
    <beforebreak>\b[Ii][Rr][Oo][Nn]\.</beforebreak>
    <afterbreak>\s</afterebreak>
  </rule>
  <rule break="no">
    <beforebreak>\b[Ii][Tt][Dd]\.</beforebreak>
    <afterbreak>\s</afterebreak>
  </rule>
  <rule break="no">
    <beforebreak>\b[Ii][Tt][Pp]\.</beforebreak>
    <afterbreak>\s</afterebreak>
  </rule>
  <rule break="no">
    <beforebreak>\b[Jj][Mm]\.</beforebreak>
    <afterbreak>\s</afterebreak>
  </rule>
  <rule break="no">
    <beforebreak>\b[Jj][Uu][Nn]\.</beforebreak>
    <afterbreak>\s</afterebreak>
  </rule>
  <rule break="no">
    <beforebreak>\b[Jj][Ww]\.</beforebreak>
    <afterbreak>\s</afterebreak>
  </rule>
  <rule break="no">
    <beforebreak>\b[Jj][Ęę][Zz]\.</beforebreak>
    <afterbreak>\s</afterebreak>
  </rule>
  <rule break="no">
    <beforebreak>\b[Kk]\.[Cc]\.</beforebreak>
    <afterbreak>\s</afterebreak>
  </rule>
  <rule break="no">
    <beforebreak>\b[Kk]\.[Pp]\.[Aa]\.</beforebreak>
    <afterbreak>\s</afterebreak>
  </rule>
  <rule break="no">
    <beforebreak>\b[Kk][Aa][Nn]\.</beforebreak>
    <afterbreak>\s</afterebreak>
  </rule>
  <rule break="no">
    <beforebreak>\b[Kk][Aa][Rr][Dd]\.</beforebreak>
    <afterbreak>\s</afterebreak>
  </rule>
  <rule break="no">
    <beforebreak>\b[Kk][Cc]\.</beforebreak>
    <afterbreak>\s</afterebreak>
  </rule>
  <rule break="no">
    <beforebreak>\b[Kk][Ll]\.</beforebreak>
    <afterbreak>\s</afterebreak>
  </rule>
  <rule break="no">
    <beforebreak>\b[Kk][Oo][Ll]\.</beforebreak>
    <afterbreak>\s</afterebreak>
  </rule>
  <rule break="no">
    <beforebreak>\b[Kk][Oo][Mm]\.</beforebreak>
    <afterbreak>\s</afterebreak>
  </rule>
  <rule break="no">
    <beforebreak>\b[Kk][Oo][Pp]\.</beforebreak>
    <afterbreak>\s</afterebreak>
  </rule>
  <rule break="no">
    <beforebreak>\b[Kk][Oo][Rr]\.</beforebreak>
    <afterbreak>\s</afterebreak>
  </rule>
  <rule break="no">
    <beforebreak>\b[Kk][Pp][Rr]\.</beforebreak>
    <afterbreak>\s</afterebreak>
  </rule>
  <rule break="no">
    <beforebreak>\b[Kk][Pp][Tt]\.</beforebreak>
    <afterbreak>\s</afterebreak>
  </rule>
  <rule break="no">
    <beforebreak>\b[Kk][Rr]\.</beforebreak>
    <afterbreak>\s</afterebreak>
  </rule>
  <rule break="no">
    <beforebreak>\b[Kk][Ss]\.</beforebreak>
    <afterbreak>\s</afterebreak>
  </rule>
  <rule break="no">
    <beforebreak>\b[Kk][Ss][Ii][Ąą][Żż]\.</beforebreak>
    <afterbreak>\s</afterebreak>
  </rule>
  <rule break="no">
    <beforebreak>\b[Ll]\.[Cc]\.</beforebreak>
    <afterbreak>\s</afterebreak>
  </rule>
  <rule break="no">
    <beforebreak>\b[Ll]\.[Dd]\.</beforebreak>
    <afterbreak>\s</afterebreak>
  </rule>
  <rule break="no">
    <beforebreak>\b[Ll]\.[Dd][Zz]\.</beforebreak>
    <afterbreak>\s</afterebreak>
  </rule>
  <rule break="no">
    <beforebreak>\b[Ll][Bb]\.</beforebreak>
    <afterbreak>\s</afterebreak>
  </rule>
  <rule break="no">
    <beforebreak>\b[Ll][Dd][Zz]\.</beforebreak>
    <afterbreak>\s</afterebreak>
  </rule>
  <rule break="no">
    <beforebreak>\b[Ll][Ee][Kk]\.</beforebreak>
    <afterbreak>\s</afterebreak>
  </rule>
  <rule break="no">
    <beforebreak>\b[Ll][Ii][Cc]\.</beforebreak>
    <afterbreak>\s</afterebreak>
  </rule>
  <rule break="no">
    <beforebreak>\b[Ll][Ii][Tt]\.</beforebreak>
    <afterbreak>\s</afterebreak>
  </rule>
  <rule break="no">
    <beforebreak>\b[Ll][Mm]\.</beforebreak>
    <afterbreak>\s</afterebreak>
  </rule>
  <rule break="no">
    <beforebreak>\b[Ll][Mm][Nn]\.</beforebreak>
    <afterbreak>\s</afterebreak>
  </rule>
  <rule break="no">
    <beforebreak>\b[Ll][Oo][Gg]\.</beforebreak>
    <afterbreak>\s</afterebreak>
  </rule>
  <rule break="no">
    <beforebreak>\b[Ll][Pp]\.</beforebreak>
    <afterbreak>\s</afterebreak>
  </rule>
  <rule break="no">
    <beforebreak>\b[Ll][Tt][Dd]\.</beforebreak>
    <afterbreak>\s</afterebreak>
  </rule>
  <rule break="no">
    <beforebreak>\b[Mm]\.[Ii][Nn]\.</beforebreak>
    <afterbreak>\s</afterebreak>
  </rule>
  <rule break="no">
    <beforebreak>\b[Mm][Bb]\.</beforebreak>
    <afterbreak>\s</afterebreak>
  </rule>
  <rule break="no">
    <beforebreak>\b[Mm][Cc]\.</beforebreak>
    <afterbreak>\s</afterebreak>
  </rule>
  <rule break="no">
    <beforebreak>\b[Mm][Ee][Cc]\.</beforebreak>
    <afterbreak>\s</afterebreak>
  </rule>
  <rule break="no">
    <beforebreak>\b[Mm][Ee][Dd]\.</beforebreak>
    <afterbreak>\s</afterebreak>
  </rule>
  <rule break="no">
    <beforebreak>\b[Mm][Gg][Rr]</beforebreak>
    <afterbreak>\s</afterebreak>
  </rule>
  <rule break="no">
    <beforebreak>\b[Mm][Ii][Ee][Ss]\.</beforebreak>
    <afterbreak>\s</afterebreak>
  </rule>
  <rule break="no">
    <beforebreak>\b[Mm][Jj][Rr]</beforebreak>
    <afterbreak>\s</afterebreak>
  </rule>
  <rule break="no">
    <beforebreak>\b[Mm][Kk][Ww]\.</beforebreak>
    <afterbreak>\s</afterebreak>
  </rule>
  <rule break="no">
    <beforebreak>\b[Mm][Ss]\.</beforebreak>
    <afterbreak>\s</afterebreak>
  </rule>
  <rule break="no">
    <beforebreak>\b[Mm][Uu][Zz]\.</beforebreak>
    <afterbreak>\s</afterebreak>
  </rule>
  <rule break="no">
    <beforebreak>\b[Nn]\.</beforebreak>
    <afterbreak>\s</afterebreak>
  </rule>
  <rule break="no">
    <beforebreak>\b[Nn]\.[Ee]\.</beforebreak>
    <afterbreak>\s</afterebreak>
  </rule>
  <rule break="no">
    <beforebreak>\b[Nn]\.[Nn]\.</beforebreak>
    <afterbreak>\s</afterebreak>
  </rule>
  <rule break="no">
    <beforebreak>\b[Nn]\.[Pp]\.[Mm]\.</beforebreak>
    <afterbreak>\s</afterebreak>
  </rule>
  <rule break="no">
    <beforebreak>\b[Nn]\.[Tt]\.</beforebreak>
    <afterbreak>\s</afterebreak>
  </rule>
  <rule break="no">
    <beforebreak>\b[Nn][Aa][Ss][Tt]\.</beforebreak>
    <afterbreak>\s</afterebreak>
  </rule>
  <rule break="no">
    <beforebreak>\b[Nn][Bb]\.</beforebreak>
    <afterbreak>\s</afterebreak>
  </rule>
  <rule break="no">
    <beforebreak>\b[Nn][Ii][Dd]\.</beforebreak>
    <afterbreak>\s</afterebreak>
  </rule>
  <rule break="no">
    <beforebreak>\b[Nn][Ii][Ee][Ss][Yy][Gg][Nn]\.</beforebreak>
    <afterbreak>\s</afterebreak>
  </rule>
  <rule break="no">
    <beforebreak>\b[Nn][Ll][Bb]\.</beforebreak>
    <afterbreak>\s</afterebreak>
  </rule>
  <rule break="no">
    <beforebreak>\b[Nn][Pp]\.</beforebreak>
    <afterbreak>\s</afterebreak>
  </rule>
  <rule break="no">
    <beforebreak>\b[Nn][Tt]\.</beforebreak>
    <afterbreak>\s</afterebreak>
  </rule>
  <rule break="no">
    <beforebreak>\b[Nn][Ww]\.</beforebreak>
    <afterbreak>\s</afterebreak>
  </rule>
  <rule break="no">
    <beforebreak>\b[Oo]\.[Oo]\.</beforebreak>
    <afterbreak>\s</afterebreak>
  </rule>
  <rule break="no">
    <beforebreak>\b[Oo][Bb]\.</beforebreak>
    <afterbreak>\s</afterebreak>
  </rule>
  <rule break="no">
    <beforebreak>\b[Oo][Kk]\.</beforebreak>
    <afterbreak>\s</afterebreak>
  </rule>
  <rule break="no">
    <beforebreak>\b[Oo][Oo]\.</beforebreak>
    <afterbreak>\s</afterebreak>
  </rule>
  <rule break="no">
    <beforebreak>\b[Oo][Pp]\.</beforebreak>
    <afterbreak>\s</afterebreak>
  </rule>
  <rule break="no">
    <beforebreak>\b[Oo][Pp][Rr]\.</beforebreak>
    <afterbreak>\s</afterebreak>
  </rule>
  <rule break="no">
    <beforebreak>\b[Oo][Ss]\.</beforebreak>
    <afterbreak>\s</afterebreak>
  </rule>
  <rule break="no">
    <beforebreak>\b[Pp]\. [Cc][Hh][Rr]\.</beforebreak>
    <afterbreak>\s</afterebreak>
  </rule>
  <rule break="no">
    <beforebreak>\b[Pp]\.[Cc]\.</beforebreak>
    <afterbreak>\s</afterebreak>
  </rule>
  <rule break="no">
    <beforebreak>\b[Pp]\.[Mm]\.</beforebreak>
    <afterbreak>\s</afterebreak>
  </rule>
  <rule break="no">
    <beforebreak>\b[Pp]\.[Nn]\.[Ee]\.</beforebreak>
    <afterbreak>\s</afterebreak>
  </rule>
  <rule break="no">
    <beforebreak>\b[Pp]\.[Oo]\.</beforebreak>
    <afterbreak>\s</afterebreak>
  </rule>
  <rule break="no">
    <beforebreak>\b[Pp][Aa][Rr]\.</beforebreak>
    <afterbreak>\s</afterebreak>
  </rule>
  <rule break="no">
    <beforebreak>\b[Pp][Bb]\.</beforebreak>
    <afterbreak>\s</afterebreak>
  </rule>
  <rule break="no">
    <beforebreak>\b[Pp][Ee][Ss]\.</beforebreak>
    <afterbreak>\s</afterebreak>
  </rule>
  <rule break="no">
    <beforebreak>\b[Pp][Kk][Tt]\.</beforebreak>
    <afterbreak>\s</afterebreak>
  </rule>
  <rule break="no">
    <beforebreak>\b[Pp][Ll]\.</beforebreak>
    <afterbreak>\s</afterebreak>
  </rule>
  <rule break="no">
    <beforebreak>\b[Pp][Nn]\.</beforebreak>
    <afterbreak>\s</afterebreak>
  </rule>
  <rule break="no">
    <beforebreak>\b[Pp][Oo][Cc][Hh]\.</beforebreak>
    <afterbreak>\s</afterebreak>
  </rule>
  <rule break="no">
    <beforebreak>\b[Pp][Oo][Jj]\.</beforebreak>
    <afterbreak>\s</afterebreak>
  </rule>
  <rule break="no">
    <beforebreak>\b[Pp][Oo][Rr]\.</beforebreak>
    <afterbreak>\s</afterebreak>
  </rule>
  <rule break="no">
    <beforebreak>\b[Pp][Oo][Ww]\.</beforebreak>
    <afterbreak>\s</afterebreak>
  </rule>
  <rule break="no">
    <beforebreak>\b[Pp][Oo][Ww]\.[Bb]\.</beforebreak>
    <afterbreak>\s</afterebreak>
  </rule>
  <rule break="no">
    <beforebreak>\b[Pp][Oo][Zz]\.</beforebreak>
    <afterbreak>\s</afterebreak>
  </rule>
  <rule break="no">
    <beforebreak>\b[Pp][Pp]\.</beforebreak>
    <afterbreak>\s</afterebreak>
  </rule>
  <rule break="no">
    <beforebreak>\b[Pp][Rr][Oo][Bb]\.</beforebreak>
    <afterbreak>\s</afterebreak>
  </rule>
  <rule break="no">
    <beforebreak>\b[Pp][Rr][Oo][Cc]\.</beforebreak>
    <afterbreak>\s</afterebreak>
  </rule>
  <rule break="no">
    <beforebreak>\b[Pp][Rr][Oo][Ff]\.</beforebreak>
    <afterbreak>\s</afterebreak>
  </rule>
  <rule break="no">
    <beforebreak>\b[Pp][Rr][Zz]\. [Cc][Hh][Rr]\.</beforebreak>
    <afterbreak>\s</afterebreak>
  </rule>
  <rule break="no">
    <beforebreak>\b[Pp][Rr][Zz][Ee][Cc]\.</beforebreak>
    <afterbreak>\s</afterebreak>
  </rule>
  <rule break="no">
    <beforebreak>\b[Pp][Rr][Zz][Ee][Ss][Tt]\.</beforebreak>
    <afterbreak>\s</afterebreak>
  </rule>
  <rule break="no">
    <beforebreak>\b[Pp][Rr][Zz][Yy][Pp]\.</beforebreak>
    <afterbreak>\s</afterebreak>
  </rule>
  <rule break="no">
    <beforebreak>\b[Pp][Ss]\.</beforebreak>
    <afterbreak>\s</afterebreak>
  </rule>
  <rule break="no">
    <beforebreak>\b[Pp][Ss][Yy][Cc][Hh]\.</beforebreak>
    <afterbreak>\s</afterebreak>
  </rule>
  <rule break="no">
    <beforebreak>\b[Pp][Ss][Yy][Cc][Hh][Ll]\.</beforebreak>
    <afterbreak>\s</afterebreak>
  </rule>
  <rule break="no">
    <beforebreak>\b[Pp][Ss][Yy][Cc][Hh][Tt]\.</beforebreak>
    <afterbreak>\s</afterebreak>
  </rule>
  <rule break="no">
    <beforebreak>\b[Pp][Tt]\.</beforebreak>
    <afterbreak>\s</afterebreak>
  </rule>
  <rule break="no">
    <beforebreak>\b[Pp][Łł][Dd]\.</beforebreak>
    <afterbreak>\s</afterebreak>
  </rule>
  <rule break="no">
    <beforebreak>\b[Pp][Łł][Kk]</beforebreak>
    <afterbreak>\s</afterebreak>
  </rule>
  <rule break="no">
    <beforebreak>\b[Pp][Łł][Nn]\.</beforebreak>
    <afterbreak>\s</afterebreak>
  </rule>
  <rule break="no">
    <beforebreak>\b[Pp][Óó][Źź][Nn]\.</beforebreak>
    <afterbreak>\s</afterebreak>
  </rule>
  <rule break="no">
    <beforebreak>\b[Qq][Uu]\.</beforebreak>
    <afterbreak>\s</afterebreak>
  </rule>
  <rule break="no">
    <beforebreak>\b[Rr]\.</beforebreak>
    <afterbreak>\s</afterebreak>
  </rule>
  <rule break="no">
    <beforebreak>\b[Rr][Oo][Ss]\.</beforebreak>
    <afterbreak>\s</afterebreak>
  </rule>
  <rule break="no">
    <beforebreak>\b[Rr][Oo][Zz][Dd][Zz]\.</beforebreak>
    <afterbreak>\s</afterebreak>
  </rule>
  <rule break="no">
    <beforebreak>\b[Rr][Oo][Zz][Pp]\.</beforebreak>
    <afterbreak>\s</afterebreak>
  </rule>
  <rule break="no">
    <beforebreak>\b[Rr][Tt][Gg]\.</beforebreak>
    <afterbreak>\s</afterebreak>
  </rule>
  <rule break="no">
    <beforebreak>\b[Rr][Yy][Cc]\.</beforebreak>
    <afterbreak>\s</afterebreak>
  </rule>
  <rule break="no">
    <beforebreak>\b[Rr][Yy][Ss]\.</beforebreak>
    <afterbreak>\s</afterebreak>
  </rule>
  <rule break="no">
    <beforebreak>\b[Rr][Żż]\.</beforebreak>
    <afterbreak>\s</afterebreak>
  </rule>
  <rule break="no">
    <beforebreak>\b[Ss]([Dd][Zz]\.</beforebreak>
    <afterbreak>\s</afterebreak>
  </rule>
  <rule break="no">
    <beforebreak>\b[Ss]\.</beforebreak>
    <afterbreak>\s</afterebreak>
  </rule>
  <rule break="no">
    <beforebreak>\b[Ss]\.[Aa]\.</beforebreak>
    <afterbreak>\s</afterebreak>
  </rule>
  <rule break="no">
    <beforebreak>\b[Ss]\.[Cc]\.</beforebreak>
    <afterbreak>\s</afterebreak>
  </rule>
  <rule break="no">
    <beforebreak>\b[Ss][Aa][Mm]\.</beforebreak>
    <afterbreak>\s</afterebreak>
  </rule>
  <rule break="no">
    <beforebreak>\b[Ss][Ee][Kk]\.</beforebreak>
    <afterbreak>\s</afterebreak>
  </rule>
  <rule break="no">
    <beforebreak>\b[Ss][Ee][Nn]\.</beforebreak>
    <afterbreak>\s</afterebreak>
  </rule>
  <rule break="no">
    <beforebreak>\b[Ss][Pp]\.</beforebreak>
    <afterbreak>\s</afterebreak>
  </rule>
  <rule break="no">
    <beforebreak>\b[Ss][Ss]\.</beforebreak>
    <afterbreak>\s</afterebreak>
  </rule>
  <rule break="no">
    <beforebreak>\b[Ss][Tt]\.</beforebreak>
    <afterbreak>\s</afterebreak>
  </rule>
  <rule break="no">
    <beforebreak>\b[Ss][Tt][Oo][Mm]\.</beforebreak>
    <afterbreak>\s</afterebreak>
  </rule>
  <rule break="no">
    <beforebreak>\b[Ss][Tt][Rr]\.</beforebreak>
    <afterbreak>\s</afterebreak>
  </rule>
  <rule break="no">
    <beforebreak>\b[Ss][Yy][Gg][Nn]\.</beforebreak>
    <afterbreak>\s</afterebreak>
  </rule>
  <rule break="no">
    <beforebreak>\b[Ss][Zz][Tt]\.</beforebreak>
    <afterbreak>\s</afterebreak>
  </rule>
  <rule break="no">
    <beforebreak>\b[Tt][Aa][Bb]\.</beforebreak>
    <afterbreak>\s</afterebreak>
  </rule>
  <rule break="no">
    <beforebreak>\b[Tt][Ee][Ll]\.</beforebreak>
    <afterbreak>\s</afterebreak>
  </rule>
  <rule break="no">
    <beforebreak>\b[Tt][Jj]\.</beforebreak>
    <afterbreak>\s</afterebreak>
  </rule>
  <rule break="no">
    <beforebreak>\b[Tt][Yy][Ss]\.</beforebreak>
    <afterbreak>\s</afterebreak>
  </rule>
  <rule break="no">
    <beforebreak>\b[Tt][Zz][Nn]\.</beforebreak>
    <afterbreak>\s</afterebreak>
  </rule>
  <rule break="no">
    <beforebreak>\b[Tt][Zz][Ww]\.</beforebreak>
    <afterbreak>\s</afterebreak>
  </rule>
  <rule break="no">
    <beforebreak>\b[Uu][Bb]\. [Mm]\.</beforebreak>
    <afterbreak>\s</afterebreak>
  </rule>
  <rule break="no">
    <beforebreak>\b[Uu][Bb]\. [Rr]\.</beforebreak>
    <afterbreak>\s</afterebreak>
  </rule>
  <rule break="no">
    <beforebreak>\b[Uu][Kk][Rr]\.</beforebreak>
    <afterbreak>\s</afterebreak>
  </rule>
  <rule break="no">
    <beforebreak>\b[Uu][Ll]\.</beforebreak>
    <afterbreak>\s</afterebreak>
  </rule>
  <rule break="no">
    <beforebreak>\b[Uu][Ss][Tt]\.</beforebreak>
    <afterbreak>\s</afterebreak>
  </rule>
  <rule break="no">
    <beforebreak>\b[Vv]\.[Vv]\.</beforebreak>
    <afterbreak>\s</afterebreak>
  </rule>
  <rule break="no">
    <beforebreak>\b[Vv][Ss]\.</beforebreak>
    <afterbreak>\s</afterebreak>
  </rule>
  <rule break="no">
    <beforebreak>\b[Ww]\.[Dd]\.</beforebreak>
    <afterbreak>\s</afterebreak>
  </rule>
  <rule break="no">
    <beforebreak>\b[Ww]\.[Gg]\.</beforebreak>
    <afterbreak>\s</afterebreak>
  </rule>
  <rule break="no">
    <beforebreak>\b[Ww][Ee][Rr]\.</beforebreak>
    <afterbreak>\s</afterebreak>
  </rule>
  <rule break="no">
    <beforebreak>\b[Ww][Ee][Tt]\.</beforebreak>
    <afterbreak>\s</afterebreak>
  </rule>
  <rule break="no">
    <beforebreak>\b[Ww][Oo][Jj]\.</beforebreak>
    <afterbreak>\s</afterebreak>
  </rule>
  <rule break="no">
    <beforebreak>\b[Ww][Ss][Cc][Hh]\.</beforebreak>
    <afterbreak>\s</afterebreak>
  </rule>
  <rule break="no">
    <beforebreak>\b[Ww][Ss][Pp]\.</beforebreak>
    <afterbreak>\s</afterebreak>
  </rule>
  <rule break="no">
    <beforebreak>\b[Ww][Ww]\.</beforebreak>
    <afterbreak>\s</afterebreak>
  </rule>
  <rule break="no">
    <beforebreak>\b[Ww][Yy][Dd]\.</beforebreak>
    <afterbreak>\s</afterebreak>
  </rule>
  <rule break="no">
    <beforebreak>\b[Ww][Yy][Dd][Zz]\.</beforebreak>
    <afterbreak>\s</afterebreak>
  </rule>
  <rule break="no">
    <beforebreak>\b[Ww][Yy][Jj]\.</beforebreak>
    <afterbreak>\s</afterebreak>
  </rule>
  <rule break="no">
    <beforebreak>\b[Ww][Yy][Mm]\.</beforebreak>
    <afterbreak>\s</afterebreak>
  </rule>
  <rule break="no">
    <beforebreak>\b[Ww][Yy][Żż]\.</beforebreak>
    <afterbreak>\s</afterebreak>
  </rule>
  <rule break="no">
    <beforebreak>\b[Ww][Łł]\.</beforebreak>
    <afterbreak>\s</afterebreak>
  </rule>
  <rule break="no">
    <beforebreak>\b[Zz] [Oo]\.[Oo]\.</beforebreak>
    <afterbreak>\s</afterebreak>
  </rule>
  <rule break="no">
    <beforebreak>\b[Zz][Aa] [Gg][Rr]\.</beforebreak>
    <afterbreak>\s</afterebreak>
  </rule>
  <rule break="no">
    <beforebreak>\b[Zz][Aa][Cc][Hh]\.</beforebreak>
    <afterbreak>\s</afterebreak>
  </rule>
  <rule break="no">
    <beforebreak>\b[Zz][Aa][Gg][Rr]\.</beforebreak>
    <afterbreak>\s</afterebreak>
  </rule>
  <rule break="no">
    <beforebreak>\b[Zz][Mm]\.</beforebreak>
    <afterbreak>\s</afterebreak>
  </rule>
  <rule break="no">
    <beforebreak>\b[Zz][Oo][Bb]\.</beforebreak>
    <afterbreak>\s</afterebreak>
  </rule>
  <rule break="no">
    <beforebreak>\b[Zz][Oo][Oo][Ll]\.</beforebreak>
    <afterbreak>\s</afterebreak>
  </rule>
  <rule break="no">
    <beforebreak>\b[Zz][Łł]\.</beforebreak>
    <afterbreak>\s</afterebreak>
  </rule>
  <rule break="no">
    <beforebreak>\b[Łł][Aa][Cc]\.</beforebreak>
    <afterbreak>\s</afterebreak>
  </rule>
  <rule break="no">
    <beforebreak>\b[Łł][Oo][Ww]\.</beforebreak>
    <afterbreak>\s</afterebreak>
  </rule>
  <rule break="no">
    <beforebreak>\b[Śś][Pp]\.</beforebreak>
    <afterbreak>\s</afterebreak>
  </rule>
  <rule break="no">
    <beforebreak>\b[Śś][Ww]\.</beforebreak>
    <afterbreak>\s</afterebreak>
  </rule>
  <rule break="no">
    <beforebreak>\b[Źź][Rr]\.</beforebreak>
    <afterbreak>\s</afterebreak>
  </rule>
  <rule break="no">
    <beforebreak>\b[Żż][Aa][Rr][Tt]\.</beforebreak>
    <afterbreak>\s</afterebreak>
  </rule>
  <rule break="no">
    <beforebreak>\b[Żż][Ee][Ńń]\.</beforebreak>
    <afterbreak>\s</afterebreak>
  </rule>
