<languagerule languagerulename="Samoan">
<!--titles-->
<rule break="no">
<beforebreak>\b([Hh]on|[Dd]r|[Mm]r|[Mm]s|[Mm]rs|[Ss]t|[Gg]en|[Cc]ol|[Mm]aj|[Bb]rig|[Ss]gt|[Cc]apt|[Cc]mnd|[Ll]t|[Ss]en|[Rr]ev|[Rr]ep|[Rr]evd|[Pp]r|[Bb]r|[Pp]res|[Pp]rof|JS|[Jj]r|[Ss]r)\.[,|:]?</beforebreak>
<afterbreak>\s\P{Ll}</afterbreak>
</rule>
<!--days of the week-->
<rule break="no">
<beforebreak>\b([Ss]un|[Mm]on|[Tt]ue|[Tt]ues|[Ww]ed|[Ww]eds|[Tt]hu|[Tt]hur|[Tt]hurs|[Ff]ri|[Ss]at)\.</beforebreak>
<afterbreak>\s\P{Lu}</afterbreak>
</rule>
<!--months - SAMOAN-->
<rule break="no">
<beforebreak>\b([Ii]an|[Ff]ep|[Mm]at|[Aa]pe|[Ii]un|[Ii]ul|[Aa]ok|[Ss]ete|[Oo]ke|[Nn]ov|[Tt]es)\.</beforebreak>
<afterbreak>\s\P{Lu}</afterbreak>
</rule>
<!--months-->
<rule break="no">
<beforebreak>\b([Jj]an|[Ff]eb|[Mm]ar|[Aa]pr|[Jj]un|[Jj]ul|[Aa]ug|[Ss]ep|[Ss]ept|[Oo]ct|[Nn]ov|[Dd]ec)\.</beforebreak>
<afterbreak>\s\P{Lu}</afterbreak>
</rule>
<!--scriptures - SAMOAN-->
<rule break="no">
<beforebreak>\b([Kk]ene|[Ll]evi|[Nn]um|[Tt]eu|[Ff]aama|[Ss]amu|[Tt]u|[Nn]o|[Nn]ee|[Ee]se|[Ss]ala|[Ff]aata|[Ss]olo|[Ii]sa|[Ii]ere|[Tt]ani|[Aa]mo|[Oo]pe|[Nn]au|[Ss]apa|[Ss]efa|[Ss]aka|[Mm]ala|[Mm]at|[Mm]are|[Gg]alu|[Kk]or|[Kk]ala|[Ee]fe|[Kk]olo|[Tt]esa|[Tt]imo|[Ff]ile|[Ee]pe|[Ii]ako|[Pp]ete|[Ii]oa|[Ff]aaa|[Nn]i|[Hh]ela|[Mm]oro|[Aa]pe)\.</beforebreak>
<afterbreak>\s\P{Lu}</afterbreak>
</rule>
<!--scriptures-->
<rule break="no">
<beforebreak>\b([Gg]en|[Ee]x|[Ll]ev|[Nn]um|[Dd]eut|[Jj]osh|[Jj]udg|[Nn]eh|[Ee]sth|[Pp]s|[Pp]rov|[Ee]ccl|[Ii]sa|[Jj]er|[Ll]am|[Ee]zek|[Dd]an|[Oo]bad|[Hh]ab|[Zz]eph|[Hh]ag|[Zz]ech|[Mm]al|[Mm]att|[Rr]om|[Cc]or|[Gg]al|[Ee]ph|[Pp]hilip|[Cc]ol|[Tt]hes|[Tt]im|[Pp]hilem|[Hh]eb|[Pp]et|[Jj]n|[Rr]ev|[Nn]e|[Hh]el|[Mm]orm|[Mm]oro|[Aa]br|[Ss]am|[Kk]gs|[Cc]hr)\.</beforebreak>
<afterbreak>\s\P{Lu}</afterbreak>
</rule>
<!--Two initialized names, e.g. "B. H. Roberts", 1-->
<rule break="no">
<beforebreak>\p{Lu}\.</beforebreak>
<afterbreak>\s\p{Lu}\.\s[\p{Lu}$]</afterbreak>
</rule>
<!--Two initialized names, e.g. "B. H. Roberts", 2-->
<rule break="no">
<beforebreak>\p{Lu}\.\s\p{Lu}\.</beforebreak>
<afterbreak>\s\p{Lu}\p{L}+</afterbreak>
</rule>
<!--initialized middle name - e.g. "David O. McKay";also place-names - e.g. "Washington, D. C."-->
<rule break="no">
<beforebreak>\b\p{Lu}\p{L}+,?\s\p{Lu}\.</beforebreak>
<afterbreak>\s</afterbreak>
</rule>
<!--initialized first name - e.g. "L. Tom Perry"-->
<rule break="no">
<beforebreak>\b\p{Lu}\.</beforebreak>
<afterbreak>\s\p{Lu}\p{L}+\s\p{Lu}\p{L}+</afterbreak>
</rule>
<!--common abbreviations-->
<rule break="no">
<beforebreak>\b(Inc|Ltd|Corp|DC|US|lds|pm|am|[Nn]o|pp|p|[Ff]igs?|[Dd]ept|[Gg]ovt|[Ii]bid|comp|[Bb]ros|Dist|Co|Ph\.?D|et\b\s\bal|etc)\.</beforebreak>
<afterbreak>\s\P{Lu}</afterbreak>
</rule>
<!--common abbreviations - never sentence-final - SAMOAN-->
<rule break="no">
<beforebreak>\b([Nn]u|[Ii]t|[Vv]ol)\.</beforebreak>
<afterbreak>\s</afterbreak>
</rule>
<!--common abbreviations - never sentence-final-->
<rule break="no">
<beforebreak>\b(i\.?e|e\.?g|c\.?f|max|min|sel|ed|www|comp|[Vv]ols?|[Vv]s|[Vv]iz|[Aa]pprox|[Ii]ncl|est|B\.[SA])\.[,;:]?</beforebreak>
<afterbreak>\s</afterbreak>
</rule>
<!--country names - SAMOAN-->
<rule break="no">
<beforebreak>\b([Ii]\.[Ss])\.</beforebreak>
<afterbreak>\s[^\p{Lu}\p{Pi}\p{Ps}"]</afterbreak>
</rule>
<!--country names 1-->
<rule break="no">
<beforebreak>\b([UuSs]\.)</beforebreak>
<afterbreak>\s[KkSsAa]\.</afterbreak>
</rule>
<!--country names 2-->
<rule break="no">
<beforebreak>\b([Uu]\.?\s*[Kk]|[Uu]\.?\s*[Ss]\.?\s*[Aa]?)\.</beforebreak>
<afterbreak>\s[^\p{Lu}|\p{Pi}|\p{Ps}|"]</afterbreak>
</rule>
<rule break="no">
<beforebreak>([0-9]+\.[0-9]+|[0-9]+\.[0-9]*|[0-9]*\.[0-9]+)</beforebreak>
<afterbreak>\s[^\p{Ps}\p{Pi}"'\(\[\{\p{Lu}]</afterbreak>
</rule>
<!--numbered lists (e.g. footnotes)-->
<rule break="no">
<beforebreak>^\s*[0-9]+\.</beforebreak>
<afterbreak>\s\p{Lu}</afterbreak>
</rule>
<!--manual section numbers (e.g. 17.2.3 Administering)-->
<rule break="no">
<beforebreak>[0-9]+\.[0-9]+\.</beforebreak>
<afterbreak>[0-9]+\s+\P{Ll}</afterbreak>
</rule>
<!--manual section headings 2-->
<rule break="no">
<beforebreak>[0-9]+\.[0-9]+\.[0-9]+</beforebreak>
<afterbreak>\s+\P{Ll}</afterbreak>
</rule>
<!--Roman numerals-->
<rule break="no">
<beforebreak>^[ivxIVX]+\s*\.</beforebreak>
<afterbreak>\s*[\p{Pi}\p{Ps}"'\(\[\{]*\p{Lu}</afterbreak>
</rule>
<!--A. D. / B. C.-->
<rule break="no">
<beforebreak>[AaBb]\.</beforebreak>
<afterbreak>\s[CcDd]\.</afterbreak>
</rule>
<!--general sentence final punctuation (incl. quotation marks)-->
<rule break="yes">
<beforebreak>[\p{Ll}\p{Lu}\p{Lt}\p{Lo}\p{Nd}]+\s*[\p{Pe}\p{Pf}\p{Po}"'"'‘’“”]*\s*[\.?!]+\s*[\p{Pe}\p{Pf}\p{Po}"'"'‘’“”]*</beforebreak>
<afterbreak>\s+['"\p{Pi}\(]*\p{Lu}</afterbreak>
</rule>
<rule break="yes">
<beforebreak>[.?!]+("|'|‘|’|“|”)[.?!]+</beforebreak>
<afterbreak>\s+[\p{Pi}"'\(\[\{&lt;]*\p{Lu}</afterbreak>
</rule>
<!--ellipsis character w/ punctuation before or after-->
<rule break="yes">
<beforebreak>[.!?]?['"\p{Pf}\p{Pe}]?\s*(\u2026|\.\s*\.\s*\.\s*)|(\u2026|\.\s*\.\s*\.)\s*[;.!?]?['"\p{Pf}\p{Pe}]?</beforebreak>
<afterbreak>\s*[\p{Pi}\p{Ps}\(\[\{&lt;]*\p{Lu}</afterbreak>
</rule>
<!--footnote references 1-->
<rule break="yes">
<beforebreak>\p{Ll}{2,}[.?!][\p{Pe}\p{Pf}"']{0,3}[0-9]{1,2}</beforebreak>
<afterbreak>\s\s?\p{Lu}</afterbreak>
</rule>
<!--footnote references 2-->
<rule break="yes">
<beforebreak>\p{Ll}{2,}[\p{Pe}\p{Pf}"']{0,3}[.!?][0-9]{1,2}</beforebreak>
<afterbreak>\s\s?\p{Lu}</afterbreak>
</rule>
<!--ellipsis following terminal punctuation-->
<rule break="yes">
<beforebreak>[.?!][\s\p{Pe}\p{Pf}\]\}\)]*</beforebreak>
<afterbreak>\u2026</afterbreak>
</rule>
<!--ellipsis followed by opening bracket-->
<rule break="yes">
<beforebreak>\u2026</beforebreak>
<afterbreak>\s*[\[\{\(]+\s*</afterbreak>
</rule>
<!--ellipsis followed by closing bracket-->
<rule break="yes">
<beforebreak>\u2026\s*[\]\}\)]+</beforebreak>
<afterbreak>\s*</afterbreak>
</rule>
<!--inline scripture references-->
<rule break="yes">
<beforebreak>[.?!]['"\p{Pe}\p{Pf}]*</beforebreak>
<afterbreak>\s*[\p{Pi}\p{Ps}\[\{\(]([1-5] )?\p{Lu}</afterbreak>
</rule>
<!--copyright statement-->
<rule break="yes">
<beforebreak>[.?!][\p{Pe}\p{Pf}"']*\s*</beforebreak>
<afterbreak>©\s*[0-9]{4}</afterbreak>
</rule>
<rule break="yes">
<beforebreak>[?!]</beforebreak>
<afterbreak>\p{Lu}</afterbreak>
</rule>
<!--newline-->
<rule break="yes">
<beforebreak>\n</beforebreak>
<afterbreak></afterbreak>
</rule>
</languagerule>
